..............
----------------------------------------------------------------------
Ran 14 tests in 0.002s

OK
Name               Stmts   Miss Branch BrPart  Cover   Missing
--------------------------------------------------------------
Diplomacy.py          82      0     48      0   100%
TestDiplomacy.py      67      0      0      0   100%
--------------------------------------------------------------
TOTAL                149      0     48      0   100%
