.....................
----------------------------------------------------------------------
Ran 21 tests in 0.002s

OK
Name               Stmts   Miss Branch BrPart  Cover   Missing
--------------------------------------------------------------
Diplomacy.py          72      0     42      0   100%
TestDiplomacy.py      92      0      0      0   100%
--------------------------------------------------------------
TOTAL                164      0     42      0   100%
